<?xml version="1.0" encoding="utf-8"?>
<!-- Generated by IcoMoon.io -->
<!DOCTYPE svg PUBLIC "-//W3C//DTD SVG 1.1//EN" "http://www.w3.org/Graphics/SVG/1.1/DTD/svg11.dtd">
<svg version="1.1" xmlns="http://www.w3.org/2000/svg" xmlns:xlink="http://www.w3.org/1999/xlink" width="32" height="32" viewBox="0 0 32 32">
<g id="icomoon-ignore">
</g>
<path d="M14.743 14.088l4.573 4.573-4.573 4.573v-9.146zM0 30.063h32v-24.063h-32v24.063zM16.147 10.833c4.286 0 7.78 3.464 7.78 7.78 0 4.286-3.464 7.78-7.78 7.78s-7.78-3.494-7.78-7.78c0-4.286 3.494-7.78 7.78-7.78v0 0zM0 1.979h32v2.042h-32v-2.042z" fill="#000000"></path>
</svg>
